r.apifoncier : les données foncières du Cerema • r.apifoncier
…
Cartofriches (accès libre)

On peut accéder aux friches, soit par département, commune ou encore à partir d’une emprise au format WGS84

cartofriches_friches(coddep = 59)
#> # A tibble: 1,429 × 15
#>    site_id site_nom site_type site_adresse site_statut comm_nom comm_insee dep  
#>    <chr>   <chr>    <chr>     <lgl>        <chr>       <chr>    <chr>      <chr>
#>  1 59002_… carrièr… inconnu   NA           friche pot… ABSCON   59002      59   
#>  2 59002_… Atelier… inconnu   NA           friche pot… ABSCON   59002      59   
#>  3 59005_… Distill… inconnu   NA           friche pot… ALLENNE… 59005      59   
#>  4 59007_… l'Air L… inconnu   NA           inconnu     ANHIERS  59007      59   
#>  5 59008_… Expanver inconnu   NA           friche pot… ANICHE   59008      59   
#>  6 59008_… Le Mont… inconnu   NA           friche pot… ANICHE   59008      59   
#>  7 59008_… SARL MI… inconnu   NA           friche pot… ANICHE   59008      59   
#>  8 59008_… Terril … inconnu   NA           friche pot… ANICHE   59008      59   
#>  9 59008_… Usine d… inconnu   NA           friche pot… ANICHE   59008      59   
#> 10 59008_… 59008_1… inconnu   NA           inconnu     ANICHE   59008      59   
#> # ℹ 1,419 more rows
#> # ℹ 7 more variables: proprio_personne <chr>, unite_fonciere_surface <dbl>,
#> #   unite_fonciere_refcad <chr>, source_nom <chr>, proprio_type_lib <list>,
#> #   source_nature <chr>, urba_zone_type <chr>

cartofriches_friches(code_insee = 59350)
#> # A tibble: 135 × 15
#>    site_id site_nom site_type site_adresse site_statut comm_nom comm_insee dep  
#>    <chr>   <chr>    <chr>     <lgl>        <chr>       <chr>    <chr>      <chr>
#>  1 59350_… Teintur… inconnu   NA           friche pot… LILLE    59350      59   
#>  2 59350_… WILVIA … inconnu   NA           friche pot… LILLE    59350      59   
#>  3 59350_… Atelier… inconnu   NA           friche pot… LILLE    59350      59   
#>  4 59350_… Station… inconnu   NA           friche pot… LILLE    59350      59   
#>  5 59350_… Assitan… inconnu   NA           friche pot… LILLE    59350      59   
#>  6 59350_… Constru… inconnu   NA           inconnu     LILLE    59350      59   
#>  7 59350_… Atelier… inconnu   NA           friche pot… LILLE    59350      59   
#>  8 59350_… Appel à… inconnu   NA           friche ave… LILLE    59350      59   
#>  9 59350_… Cie Eur… inconnu   NA           inconnu     LILLE    59350      59   
#> 10 59350_… Appel à… inconnu   NA           friche ave… LILLE    59350      59   
#> # ℹ 125 more rows
#> # ℹ 7 more variables: proprio_personne <chr>, unite_fonciere_surface <dbl>,
#> #   unite_fonciere_refcad <chr>, source_nom <chr>, proprio_type_lib <list>,
#> #   source_nature <chr>, urba_zone_type <chr>

cartofriches_friches(in_bbox = '2.827642,50.495958,3.32616,50.767734')
#> # A tibble: 744 × 15
#>    site_id site_nom site_type site_adresse site_statut comm_nom comm_insee dep  
#>    <chr>   <chr>    <chr>     <lgl>        <chr>       <chr>    <chr>      <chr>
#>  1 59005_… "Distil… inconnu   NA           friche pot… ALLENNE… 59005      59   
#>  2 59009_… "SA Ate… inconnu   NA           inconnu     VILLENE… 59009      59   
#>  3 59009_… "Appel … inconnu   NA           friche ave… VILLENE… 59009      59   
#>  4 59009_… "Carrel… inconnu   NA           friche pot… VILLENE… 59009      59   
#>  5 59009_… "Fabriq… inconnu   NA           friche pot… VILLENE… 59009      59   
#>  6 59009_… "Colle … inconnu   NA           friche pot… VILLENE… 59009      59   
#>  7 59009_… "Vernis… inconnu   NA           friche pot… VILLENE… 59009      59   
#>  8 59009_… "Tanner… inconnu   NA           friche pot… VILLENE… 59009      59   
#>  9 59009_… "Atelie… inconnu   NA           friche pot… VILLENE… 59009      59   
#> 10 59009_… "Usine … inconnu   NA           friche pot… VILLENE… 59009      59   
#> # ℹ 734 more rows
#> # ℹ 7 more variables: proprio_personne <chr>, unite_fonciere_surface <dbl>,
#> #   unite_fonciere_refcad <chr>, source_nom <chr>, proprio_type_lib <list>,
#> #   source_nature <chr>, urba_zone_type <chr>
…
