Retourne, en GeoJSON, les friches issues de Cartofriches pour la commune, le département ou l'emprise rectangulaire demandée (paramètre code_insee, coddep ou in_bbox obligatoire) — cartofriches_geofri
…
#>   using driver `GeoJSON'
#> Simple feature collection with 135 features and 15 fields
#> Geometry type: MULTIPOLYGON
#> Dimension:     XY
#> Bounding box:  xmin: 2.9743 ymin: 50.60818 xmax: 3.113374 ymax: 50.65471
#> Geodetic CRS:  WGS 84
#> Simple feature collection with 135 features and 15 fields
#> Geometry type: MULTIPOLYGON
#> Dimension:     XY
#> Bounding box:  xmin: 2.9743 ymin: 50.60818 xmax: 3.113374 ymax: 50.65471
#> Geodetic CRS:  WGS 84
#> # A tibble: 135 × 16
#>    id      site_nom site_type site_adresse site_statut comm_nom comm_insee dep  
#>  * <chr>   <chr>    <chr>     <chr>        <chr>       <chr>    <chr>      <chr>
#>  1 59350_… Teintur… inconnu   NA           friche pot… LILLE    59350      59   
#>  2 59350_… WILVIA … inconnu   NA           friche pot… LILLE    59350      59   
#>  3 59350_… Atelier… inconnu   NA           friche pot… LILLE    59350      59   
#>  4 59350_… Station… inconnu   NA           friche pot… LILLE    59350      59   
#>  5 59350_… Assitan… inconnu   NA           friche pot… LILLE    59350      59   
#>  6 59350_… Constru… inconnu   NA           inconnu     LILLE    59350      59   
#>  7 59350_… Atelier… inconnu   NA           friche pot… LILLE    59350      59   
#>  8 59350_… Appel à… inconnu   NA           friche ave… LILLE    59350      59   
#>  9 59350_… Cie Eur… inconnu   NA           inconnu     LILLE    59350      59   
#> 10 59350_… Appel à… inconnu   NA           friche ave… LILLE    59350      59   
#> # ℹ 125 more rows
#> # ℹ 8 more variables: proprio_personne <chr>, unite_fonciere_surface <dbl>,
#> #   unite_fonciere_refcad <chr>, source_nom <chr>, source_nature <chr>,
#> #   urba_zone_type <chr>, proprio_type_lib <chr>, geometry <MULTIPOLYGON [°]>
…
#>   using driver `GeoJSON'
#> Simple feature collection with 244 features and 15 fields
#> Geometry type: MULTIPOLYGON
#> Dimension:     XY
#> Bounding box:  xmin: 2.837391 ymin: 50.49767 xmax: 3.243399 ymax: 50.74015
#> Geodetic CRS:  WGS 84
#> Simple feature collection with 744 features and 15 fields
#> Geometry type: MULTIPOLYGON
#> Dimension:     XY
#> Bounding box:  xmin: 2.826734 ymin: 50.49767 xmax: 3.269046 ymax: 50.77002
#> Geodetic CRS:  WGS 84
#> # A tibble: 744 × 16
#>    id      site_nom site_type site_adresse site_statut comm_nom comm_insee dep  
#>  * <chr>   <chr>    <chr>     <chr>        <chr>       <chr>    <chr>      <chr>
#>  1 59005_… "Distil… inconnu   NA           friche pot… ALLENNE… 59005      59   
#>  2 59009_… "SA Ate… inconnu   NA           inconnu     VILLENE… 59009      59   
#>  3 59009_… "Appel … inconnu   NA           friche ave… VILLENE… 59009      59   
#>  4 59009_… "Carrel… inconnu   NA           friche pot… VILLENE… 59009      59   
#>  5 59009_… "Fabriq… inconnu   NA           friche pot… VILLENE… 59009      59   
#>  6 59009_… "Colle … inconnu   NA           friche pot… VILLENE… 59009      59   
#>  7 59009_… "Vernis… inconnu   NA           friche pot… VILLENE… 59009      59   
#>  8 59009_… "Tanner… inconnu   NA           friche pot… VILLENE… 59009      59   
#>  9 59009_… "Atelie… inconnu   NA           friche pot… VILLENE… 59009      59   
#> 10 59009_… "Usine … inconnu   NA           friche pot… VILLENE… 59009      59   
#> # ℹ 734 more rows
#> # ℹ 8 more variables: proprio_personne <chr>, unite_fonciere_surface <dbl>,
#> #   unite_fonciere_refcad <chr>, source_nom <chr>, source_nature <chr>,
#> #   urba_zone_type <chr>, proprio_type_lib <chr>, geometry <MULTIPOLYGON [°]>
…
