Retourne les friches issues de Cartofriches pour la commune, le département ou l'emprise rectangulaire demandée — cartofriches_friches • r.apifoncier
…
urba_zone_type
Type de zone d'urbanisme

    Valeur de retour

Retourne les friches issues de Cartofriches pour la commune, le département ou l'emprise rectangulaire demandée (paramètre code_insee, coddep ou in_bbox obligatoire)

    Exemples

cartofriches_friches(coddep = 59)
#> NULL
cartofriches_friches(code_insee = 59350)
#> [1] 59350
#> # A tibble: 135 × 15
#>    site_id site_nom site_type site_adresse site_statut comm_nom comm_insee dep  
#>    <chr>   <chr>    <chr>     <lgl>        <chr>       <chr>    <chr>      <chr>
#>  1 59350_… Teintur… inconnu   NA           friche pot… LILLE    59350      59   
#>  2 59350_… WILVIA … inconnu   NA           friche pot… LILLE    59350      59   
#>  3 59350_… Atelier… inconnu   NA           friche pot… LILLE    59350      59   
#>  4 59350_… Station… inconnu   NA           friche pot… LILLE    59350      59   
#>  5 59350_… Assitan… inconnu   NA           friche pot… LILLE    59350      59   
#>  6 59350_… Constru… inconnu   NA           inconnu     LILLE    59350      59   
#>  7 59350_… Atelier… inconnu   NA           friche pot… LILLE    59350      59   
#>  8 59350_… Appel à… inconnu   NA           friche ave… LILLE    59350      59   
#>  9 59350_… Cie Eur… inconnu   NA           inconnu     LILLE    59350      59   
#> 10 59350_… Appel à… inconnu   NA           friche ave… LILLE    59350      59   
#> # ℹ 125 more rows
#> # ℹ 7 more variables: proprio_personne <chr>, unite_fonciere_surface <dbl>,
#> #   unite_fonciere_refcad <chr>, source_nom <chr>, proprio_type_lib <list>,
#> #   source_nature <chr>, urba_zone_type <chr>
…
