Géomutations open — dvf_opendata_geomutations • r.apifoncier
…
Retourne, en GeoJSON, les mutations issues de DVF+ pour la commune ou l'emprise rectangulaire demandée (paramètre code_insee ou in_bbox obligatoire)

    Exemples

dvf_opendata_geomutations(code_insee=59001)
#> No encoding supplied: defaulting to UTF-8.
#> Warning: GDAL Message 6: driver GeoJSON does not support open option ENCODING
#> [1] "84 / 84"
#> Simple feature collection with 84 features and 21 fields (with 1 geometry empty)
#> Geometry type: GEOMETRY
#> Dimension:     XY
#> Bounding box:  xmin: 3.174165 ymin: 50.15932 xmax: 3.305036 ymax: 50.25702
#> Geodetic CRS:  WGS 84
#> # A tibble: 84 × 22
#> # Groups:   idopendata [84]
#>    idmutinvar   idopendata datemut    anneemut coddep libnatmut vefa  valeurfonc
#>  * <chr>        <chr>      <date>        <int> <chr>  <chr>     <lgl> <chr>     
#>  1 274db1bcf69… 274db1bcf… 2022-08-05     2022 59     Vente     FALSE 47000.00  
#>  2 b05d9e0e984… b05d9e0e9… 2022-03-16     2022 59     Vente     FALSE 280000.00 
#>  3 950ab57f428… 950ab57f4… 2022-09-16     2022 59     Vente     FALSE 182100.00 
#>  4 7f3aaf2d727… 7f3aaf2d7… 2022-10-25     2022 59     Vente     FALSE 70000.00  
#>  5 7fca9a8e78f… 7fca9a8e7… 2022-10-26     2022 59     Vente     FALSE 280000.00 
#>  6 6faba458b70… 6faba458b… 2022-03-04     2022 59     Vente     FALSE 276000.00 
#>  7 5b670648771… 5b6706487… 2021-05-17     2021 59     Vente     FALSE 309600.00 
#>  8 06874211e78… 06874211e… 2021-12-28     2021 59     Vente     FALSE 8500.00   
#>  9 5e5f60095de… 5e5f60095… 2021-03-03     2021 59     Vente     FALSE 289000.00 
#> 10 2d561a1e58b… 2d561a1e5… 2021-02-26     2021 59     Vente     FALSE 225000.00 
#> # ℹ 74 more rows
#> # ℹ 14 more variables: nbcomm <int>, nbpar <int>, nbparmut <int>, sterr <chr>,
#> #   nbvolmut <int>, nblocmut <int>, sbati <chr>, codtypbien <chr>,
#> #   libtypbien <chr>, l_codinsee <chr>, l_idpar <chr>, l_idparmut <chr>,
#> #   l_idlocmut <chr>, geometry <POLYGON [°]>
…
