Retourne les indicateurs annuels ou triennaux de prix à la commune — prix.communes • apifoncier
…
prix.communes(code_insee=c("59350", "59646"), annee="2020")
#> # A tibble: 2 × 519
#>   annee codgeo libgeo    nbtrans_cod1 valeurfonc_sum_cod1 nbtrans_cod2
#>   <chr> <chr>  <chr>            <dbl>               <dbl>        <dbl>
#> 1 2020  59350  Lille             5115         1338281971.           52
#> 2 2020  59646  Wasquehal          365          129589305.           11
#> # ℹ 513 more variables: valeurfonc_sum_cod2 <dbl>, nbtrans_cod11 <dbl>,
#> #   valeurfonc_sum_cod11 <dbl>, nbtrans_cod111 <dbl>,
#> #   valeurfonc_sum_cod111 <dbl>, valeurfonc_q25_cod111 <dbl>,
#> #   valeurfonc_median_cod111 <dbl>, valeurfonc_q75_cod111 <dbl>,
#> #   pxm2_q25_cod111 <dbl>, pxm2_median_cod111 <dbl>, pxm2_q75_cod111 <dbl>,
#> #   sbati_sum_cod111 <dbl>, sbati_median_cod111 <dbl>, nbtrans_cod1113 <dbl>,
#> #   valeurfonc_sum_cod1113 <dbl>, valeurfonc_q25_cod1113 <dbl>, …
prix.communes(code_insee=c("59350", "59646"), periode="triennal")
#> # A tibble: 22 × 603
#>    annee codgeo libgeo nbtrans_cod1 valeurfonc_sum_cod1 nbtrans_cod2
#>    <chr> <chr>  <chr>         <dbl>               <dbl>        <dbl>
#>  1 2011  59350  Lille         13794         2533852496.          187
#>  2 2012  59350  Lille         12645         2477806123.          175
#>  3 2013  59350  Lille         12102         2400004436.          163
#>  4 2014  59350  Lille         12374         2500471635.          121
#>  5 2015  59350  Lille         13111         2735022859.          119
#>  6 2016  59350  Lille         14567         3245216964.          128
#>  7 2017  59350  Lille         15682         3864671916.          142
#>  8 2018  59350  Lille         16888         4164743129.          144
#>  9 2019  59350  Lille         16616         4187866503.          147
#> 10 2020  59350  Lille         16667         4023083048.          171
#> # ℹ 12 more rows
#> # ℹ 597 more variables: valeurfonc_sum_cod2 <dbl>, nbtrans_cod11 <dbl>,
#> #   valeurfonc_sum_cod11 <dbl>, nbtrans_cod111 <dbl>,
#> #   valeurfonc_sum_cod111 <dbl>, valeurfonc_q25_cod111 <dbl>,
#> #   valeurfonc_median_cod111 <dbl>, valeurfonc_q75_cod111 <dbl>,
#> #   pxm2_q25_cod111 <dbl>, pxm2_median_cod111 <dbl>, pxm2_q75_cod111 <dbl>,
#> #   sbati_sum_cod111 <dbl>, sbati_median_cod111 <dbl>, nbtrans_cod1111 <dbl>, …
…
